IE 451 Final Exam Fall 2020
…
Now propose a binomial regression model for the percentage of unacceptable batches and predictors. Fit the model to data and see if it explains variation well. You may need to iterate several times until you find a satisfactory model.

Interpretation

Firstly we need to add a binary outcome data to data to perform logistic regression. I do it as follows;

mean(d$P)

## [1] 14.03333

d3<- d%>%mutate(Perc.above.average=as.factor(ifelse(P>=mean(P),"Yes","No"))) %>% select(-P)
d3

## # A tibble: 27 x 5
##        A     B     C     D Perc.above.average
##    <dbl> <dbl> <dbl> <dbl> <fct>             
##  1  1.12   3.5    40   150 No                
##  2  1.12   3.5    50   120 No                
##  3  1.12   3.5    30   135 Yes               
##  4  1.12   3      40   120 Yes               
##  5  1.12   3      50   135 Yes               
##  6  1.12   3      30   150 No                
##  7  1.12   4      40   135 Yes               
##  8  1.12   4      50   150 No                
##  9  1.12   4      30   120 No                
## 10  1.12   3.5    40   120 Yes               
## #  with 17 more rows
…
